{
  "project_info": {
    "project_number": "477756125494",
    "project_id": "afm-ee0af",
    "storage_bucket": "afm-ee0af.appspot.com"
  },
  "client": [
    {
      "client_info": {
        "mobilesdk_app_id": "1:477756125494:android:5c5a62d8373ea1b4780397",
        "android_client_info": {
          "package_name": "com.realination.afm"
        }
      },
      "oauth_client": [
        {
          "client_id": "477756125494-npqadl662pnlsfffoedusrdk2jqga3ua.apps.googleusercontent.com",
          "client_type": 3
        }
      ],
      "api_key": [
        {
          "current_key": "AIzaSyDtOjwjsUum5eGxRY9vJPrOQBVboAfyNjg"
        }
      ],
      "services": {
        "appinvite_service": {
          "other_platform_oauth_client": [
            {
              "client_id": "477756125494-npqadl662pnlsfffoedusrdk2jqga3ua.apps.googleusercontent.com",
              "client_type": 3
            }
          ]
        }
      }
    }
  ],
  "configuration_version": "1"
}